---------- Lista de Amigos -----------
  Nro  Nombre      Edad
    1  Welser        18
    2  Orlando       12
    3  Stuard         6
    4  Daniel        22
    5  Steve         19
    6  Jose          20
    7  Deyvis        19